1 10 20
10 1 20
100 200 125
201 210 89
900 1000 174
1000 900 174
10 10 7
157232 27747 383
502547 248184 449
180094 679707 509
305606 709390 509
1994 952595 525
635691 804384 504
871561 397521 525
910205 430292 525
512943 99856 470
953087 524059 525
644441 291825 509
234868 765051 509
462599 993918 525
38921 359064 443
401949 970837 525
585160 457288 470
885260 226051 525
180474 174128 365
804709 661706 504
81150 672025 509
435711 973844 525
105913 662497 509
665516 538204 509
908872 818085 525
292469 252989 407
226536 890108 525
388043 902614 525
802619 321233 509
278879 799518 509
933037 110423 525
448311 286071 449
885236 190728 525
463555 327234 449
331840 675593 509
296919 3553 443
542139 317154 470
904304 881013 445
909119 479670 525
682645 117843 509
731564 907993 525
64771 864522 525
258578 219451 443
24807 720451 509
62774 145443 375
824717 428196 509
495134 745176 509
581513 823107 509
189674 137327 383
92662 748101 509
693285 934254 525
747107 268043 509
595005 378421 470
752206 820943 468
851475 190719 525
630783 808542 504
557478 80908 470
497847 951113 525
757210 760408 362
586979 23752 470
101338 687655 509
790486 968226 525
442655 144754 449
11072 247888 443
655067 282836 509
209697 260650 443
139796 111734 349
64384 86101 351
513906 359235 470
870799 980258 507
191280 659443 509
388913 746356 509
440355 277941 449
372132 35992 443
896292 235722 525
373329 998961 525
554144 907394 525
764411 912915 525
938725 756371 525
945630 589309 525
131778 127085 344
443235 577157 470
255717 37022 443
825213 375720 509
512510 723150 509
661097 145276 509
604193 345764 470
531965 180398 470
382044 559932 470
565838 529053 452
904905 258406 525
136169 178088 383
403462 177910 443
606184 382 470
112403 699446 509
742346 381967 509
368589 972751 525
586477 986760 525
168586 401704 443
240580 765017 509
881938 287732 525
524401 37313 470
247076 729821 509
359897 134670 443
574209 263491 470
25818 720971 509
405281 25084 443
886697 247408 525
291797 546253 470
383919 747863 509
391968 593749 470
620383 710531 509
480326 609155 470
645423 270792 509
255506 220650 443
212245 838364 525
906375 226634 525
240437 562857 470
180185 65027 383
304906 165303 443
27516 585043 470
43987 957254 525
585281 401319 470
439658 497354 444
26008 837566 509
228219 571051 470
596831 278460 470
279883 656437 509
183025 394589 443
387796 897214 525
570199 303720 470
635386 720509 504
12106 550196 470
499312 205127 449
963389 157484 525
775457 203524 509
897691 631209 525
359065 93780 443
764601 834882 468
982219 538379 525
333173 663924 509
139748 130750 344
231651 950866 525
249057 590427 470
707074 308222 509
876215 287963 525
455214 765065 509
162331 314770 443
579243 405236 470
638009 465508 509
971857 905254 507
529430 102799 470
764453 570657 509
818343 29836 509
337726 995109 525
720624 201916 509
248750 412819 449
499789 205363 449
317896 935070 525
569444 558775 421
558466 592004 434
155371 627597 509
197645 837341 509
838510 837676 525
406101 265025 441
776648 325146 509
173613 890937 525
30910 599833 470
856128 80252 525
341368 923796 525
116405 320350 443
487262 424206 444
395779 811906 509
103856 968844 525
922962 708898 525
1 1 1
1 999999 525
