1 10 20
100 200 125
201 210 89
900 1000 174
10 1 20
100 100 26
999999 999999 259
1 10000 262
5672 6092 218
15672 25192 282
23139 29999 308
1340 2456 183
67920 67890 206
32140 34050 267
1 999999 525
999999 1 525
578920 234051 470
343252 343252 53
988989 999123 440
2 26 24
434 4892 238
444 5555 238
690851 900124 525
1 1 1
2 2 2
50 49 25
23 358912 443
100000 999999 525
200000 999999 525
300000 999999 525
400000 999999 525
500000 999999 525
600000 999999 525
700000 999999 525
800000 999999 525
900000 999999 507
2001 3000 217
209423 40871 383
160013 885328 525
226654 852101 525
723044 395464 509
668637 275189 509
252362 916591 525
272472 316696 389
837541 318360 509
312818 358837 441
412031 887016 525
934434 771629 525
954205 659140 525
560342 548359 421
734132 688890 504
692219 265834 509
954241 670280 525
787923 182234 509
515010 569550 452
332140 356257 441
799669 562435 509
973128 873616 507
802738 254223 509
930117 710104 525
243297 849748 525
158976 467564 449
27526 523576 470
476158 333470 449
933468 387044 525
976208 963674 458
750727 217063 509
347986 689031 509
155604 801665 509
317918 290129 384
238634 229545 443
446687 893073 525
842339 159647 525
273072 767028 509
450068 793078 509
314086 960982 525
691208 746973 504
459766 650823 509
677559 618948 509
958321 288310 525
299834 806335 509
862061 156524 525
561719 563394 359
311385 663807 509
449252 585690 470
308274 78586 443
742483 968878 525
587639 226531 470
773316 607977 509
446167 317115 449
565033 674173 509
442655 293550 449
580400 858156 525
521440 177260 470
946666 456347 525
735529 972409 525
329637 575024 470
309260 198099 443
18735 896942 525
86835 822216 509
662171 941490 525
954467 982002 458
132864 322250 443
6900 52809 340
109592 269982 443
522515 543572 408
343065 173147 443
263929 771692 509
475210 193053 449
217079 789598 509
66674 106602 354
902236 868861 445
473351 812661 509
294746 253165 407
789276 425767 509
691460 655506 442
274801 256322 407
842188 84283 525
229788 276465 443
649855 404077 509
